[
  {
    "id": 4,
    "label": "G4"
  },
  {
    "id": 5,
    "label": "G5"
  },
  {
    "id": 6,
    "label": "G6"
  },
  {
    "id": 7,
    "label": "G7"
  },
  {
    "id": 8,
    "label": "G8"
  },
  {
    "id": 9,
    "label": "G9"
  },
  {
    "id": 10,
    "label": "G10"
  },
  {
    "id": 11,
    "label": "G11"
  },
  {
    "id": 12,
    "label": "G12"
  }
]
