[
  {
    "id": 1,
    "label": "GH",
    "domaine": [
      {
        "id": 1,
        "label": "EGP1",
        "groupe": [
          {
            "id": 1,
            "label": "G1"
          },
          {
            "id": 2,
            "label": "G2"
          },
          {
            "id": 3,
            "label": "G3"
          },
          {
            "id": 4,
            "label": "G4"
          },
          {
            "id": 5,
            "label": "G5"
          },
          {
            "id": 6,
            "label": "G6"
          }
        ]
      },
      {
        "id": 2,
        "label": "EGP2",
        "groupe": [
          {
            "id": 1,
            "label": "G1"
          }
        ]
      },
      {
        "id": 3,
        "label": "EGP3",
        "groupe": [
          {
            "id": 1,
            "label": "G1"
          }
        ]
      }
    ]
  },
  {
    "id": 2,
    "label": "Site",
    "domaine": [
      {
        "id": 1,
        "label": "EGP1",
        "groupe": [
          {
            "id": 1,
            "label": "G1"
          }
        ]
      }
    ]
  },
  {
    "id": 3,
    "label": "Service",
    "domaine": [
      {
        "id": 1,
        "label": "EGP1",
        "groupe": [
          {
            "id": 1,
            "label": "G1"
          }
        ]
      }
    ]
  },
  {
    "id": 4,
    "label": "Interface",
    "domaine": [
      {
        "id": 1,
        "label": "EGP1",
        "groupe": [
          {
            "id": 1,
            "label": "G1"
          }
        ]
      }
    ]
  },
  {
    "id": 5,
    "label": "UG",
    "domaine": [
      {
        "id": 1,
        "label": "EGP1",
        "groupe": [
          {
            "id": 1,
            "label": "G1"
          }
        ]
      }
    ]
  },
  {
    "id": 6,
    "label": "Multisite",
    "domaine": [
      {
        "id": 1,
        "label": "EGP1",
        "groupe": [
          {
            "id": 1,
            "label": "G1"
          }
        ]
      }
    ]
  }
]
